<?xml version="1.0" encoding="utf-8"?>
<!-- Generator: Adobe Illustrator 16.0.0, SVG Export Plug-In . SVG Version: 6.00 Build 0)  -->
<!DOCTYPE svg PUBLIC "-//W3C//DTD SVG 1.1//EN" "http://www.w3.org/Graphics/SVG/1.1/DTD/svg11.dtd">
<svg version="1.1" id="Capa_1" xmlns="http://www.w3.org/2000/svg" xmlns:xlink="http://www.w3.org/1999/xlink" x="0px" y="0px"
	 width="256px" height="256px" viewBox="0 0 256 256" enable-background="new 0 0 256 256" xml:space="preserve">
<g>
	<g>
		<g>
			<path fill="#C30066" stroke="#C30066" stroke-miterlimit="10" d="M229.956,106.291c-5.491,0-9.952,4.442-9.952,9.951v10.004
				c0,26.133-10.203,50.694-28.678,69.15c-18.475,18.469-43.039,28.617-69.134,28.617c-0.02,0-0.037,0-0.055,0
				c-53.944-0.036-97.813-43.932-97.776-97.876c0.019-26.132,10.204-50.693,28.699-69.151
				c18.473-18.457,43.018-28.624,69.132-28.624c0.019,0,0.036,0,0.055,0c13.779,0.019,27.161,2.871,39.749,8.47
				c5.02,2.239,10.907-0.018,13.13-5.039c2.24-5.02-0.018-10.89-5.021-13.129c-15.171-6.754-31.263-10.168-47.858-10.186
				c-0.019,0-0.036,0-0.055,0c-31.424,0-60.971,12.227-83.202,34.439C16.759,65.132,4.496,94.678,4.479,126.12
				c-0.021,31.442,12.206,61.024,34.421,83.266c22.232,22.25,51.776,34.495,83.22,34.531c0.018,0,0.035,0,0.072,0
				c31.405,0,60.951-12.246,83.183-34.423c22.25-22.241,34.514-51.787,34.53-83.248v-10.004
				C239.905,110.733,235.445,106.291,229.956,106.291z"/>
		</g>
	</g>
	<g>
		<g>
			<path fill="#C30066" stroke="#C30066" stroke-miterlimit="10" d="M247.764,22.222c-3.885-3.866-10.187-3.866-14.069,0
				l-111.502,111.52l-25.302-25.302c-3.884-3.883-10.186-3.883-14.068,0s-3.883,10.186,0,14.068l32.327,32.328
				c1.95,1.949,4.497,2.925,7.043,2.925c2.547,0,5.092-0.976,7.024-2.925L247.764,36.29
				C251.646,32.408,251.646,26.123,247.764,22.222z"/>
		</g>
	</g>
</g>
</svg>
