<?xml version="1.0" encoding="utf-8"?>
<!-- Generator: Adobe Illustrator 16.0.0, SVG Export Plug-In . SVG Version: 6.00 Build 0)  -->
<!DOCTYPE svg PUBLIC "-//W3C//DTD SVG 1.1//EN" "http://www.w3.org/Graphics/SVG/1.1/DTD/svg11.dtd">
<svg version="1.1" id="Capa_1" xmlns="http://www.w3.org/2000/svg" xmlns:xlink="http://www.w3.org/1999/xlink" x="0px" y="0px"
	 width="256px" height="256px" viewBox="0 0 256 256" enable-background="new 0 0 256 256" xml:space="preserve">
<g>
	<g>
		<g>
			<path fill="#6AB2E0" d="M224.787,6.094h-71.552c-0.745-0.027-1.49-0.027-2.249,0c-16.315,0.621-29.041,14.341-28.42,30.656
				h10.214c0-0.829,0.235-20.428,20.455-20.428h66.444v122.662h-46.003c-0.745-0.027-1.491-0.027-2.236,0
				c-16.327,0.62-29.054,14.354-28.433,30.669h10.228c0-0.829,0.234-20.456,20.441-20.456h51.11c2.829,0,5.106-2.291,5.106-5.106
				V11.2C229.894,8.372,227.616,6.094,224.787,6.094z"/>
		</g>
	</g>
	<g>
		<g>
			<rect x="122.566" y="36.75" fill="#6AB2E0" width="10.214" height="148.236"/>
		</g>
	</g>
	<g>
		<g>
			<path fill="#6AB2E0" d="M20.345,164.546c-8.475,0-15.334,6.86-15.334,15.321c0,8.474,6.86,15.349,15.334,15.349
				c8.461,0,15.321-6.875,15.321-15.349C35.666,171.406,28.806,164.546,20.345,164.546z M20.345,184.986
				c-2.83,0-5.121-2.291-5.121-5.119c0-2.816,2.291-5.107,5.121-5.107c2.816,0,5.107,2.291,5.107,5.107
				C25.453,182.695,23.161,184.986,20.345,184.986z"/>
		</g>
	</g>
	<g>
		<g>
			<path fill="#6AB2E0" d="M53.568,195.216c-9.882,0-17.902,8.005-17.902,17.888c0,9.882,8.02,17.887,17.902,17.887
				c9.869,0,17.888-8.005,17.888-17.887C71.456,203.221,63.437,195.216,53.568,195.216z M53.568,220.764
				c-4.237,0-7.674-3.438-7.674-7.66c0-4.252,3.437-7.675,7.674-7.675c4.224,0,7.661,3.423,7.661,7.675
				C61.229,217.326,57.792,220.764,53.568,220.764z"/>
		</g>
	</g>
	<g>
		<g>
			<path fill="#6AB2E0" d="M127.673,210.536c-11.291,0-20.442,9.164-20.442,20.454c0,11.292,9.151,20.442,20.442,20.442
				c11.29,0,20.441-9.15,20.441-20.442C148.114,219.7,138.963,210.536,127.673,210.536z M127.673,241.205
				c-5.646,0-10.214-4.583-10.214-10.215c0-5.659,4.568-10.227,10.214-10.227c5.645,0,10.228,4.567,10.228,10.227
				C137.901,236.622,133.318,241.205,127.673,241.205z"/>
		</g>
	</g>
	<g>
		<g>
			<path fill="#6AB2E0" d="M132.78,34.514c-0.607-16.315-14.341-29.04-30.655-28.42H30.56c-2.816,0-5.107,2.278-5.107,5.106v132.891
				c0,2.83,2.291,5.106,5.107,5.106h51.11c0.525-0.013,1.035-0.013,1.56,0c10.863,0.442,19.324,9.594,18.896,20.456h5.106h5.107
				c0.027-0.745,0.027-1.49,0-2.236c-0.622-16.314-14.341-29.054-30.669-28.433H35.666V16.322h66.459
				c0.511-0.027,1.035-0.027,1.56,0c10.862,0.413,19.31,9.578,18.881,20.428h10.214C132.808,36.005,132.808,35.259,132.78,34.514z"
				/>
		</g>
	</g>
	<g>
		<g>
			<path fill="#6AB2E0" d="M86.79,113.422H71.456v10.228H86.79c6.446-0.621,12.698,2.43,16.163,7.909l8.557-5.604
				C106.1,117.659,96.673,112.87,86.79,113.422z"/>
		</g>
	</g>
	<g>
		<g>
			<path fill="#6AB2E0" d="M102.125,169.653c0,2.815-2.291,5.106-5.121,5.106H61.229v10.227h35.776
				c8.474,0,15.334-6.858,15.334-15.333H102.125z"/>
		</g>
	</g>
	<g>
		<g>
			<path fill="#6AB2E0" d="M102.125,190.094c0,8.462-6.874,15.335-15.335,15.335H66.335v10.228H86.79
				c14.106-0.015,25.535-11.455,25.549-25.563H102.125z"/>
		</g>
	</g>
	<g>
		<g>
			<rect x="45.894" y="113.422" fill="#6AB2E0" width="15.335" height="10.228"/>
		</g>
	</g>
	<g>
		<g>
			<path fill="#6AB2E0" d="M86.79,92.98v10.228c10.904,0,13.333,0.109,16.825,3.617l7.233-7.234
				C104.236,92.98,98.398,92.98,86.79,92.98z"/>
		</g>
	</g>
	<g>
		<g>
			<path fill="#6AB2E0" d="M86.79,72.539H66.335v10.213H86.79c10.904,0,13.333,0.14,16.825,3.617l7.233-7.232
				C104.236,72.539,98.398,72.539,86.79,72.539z"/>
		</g>
	</g>
	<g>
		<g>
			<path fill="#6AB2E0" d="M86.79,52.098H71.456v10.214H86.79c10.904,0,13.333,0.124,16.825,3.617l7.233-7.234
				C104.236,52.098,98.398,52.098,86.79,52.098z"/>
		</g>
	</g>
	<g>
		<g>
			<path fill="#6AB2E0" d="M86.79,31.643V41.87c10.904,0,13.333,0.125,16.825,3.603l7.233-7.219
				C104.236,31.643,98.398,31.643,86.79,31.643z"/>
		</g>
	</g>
	<g>
		<g>
			<rect x="45.894" y="92.98" fill="#6AB2E0" width="30.669" height="10.228"/>
		</g>
	</g>
	<g>
		<g>
			<rect x="45.894" y="72.539" fill="#6AB2E0" width="10.228" height="10.213"/>
		</g>
	</g>
	<g>
		<g>
			<rect x="45.894" y="52.098" fill="#6AB2E0" width="15.335" height="10.214"/>
		</g>
	</g>
	<g>
		<g>
			<rect x="45.894" y="31.643" fill="#6AB2E0" width="30.669" height="10.228"/>
		</g>
	</g>
	<g>
		<g>
			<path fill="#6AB2E0" d="M235.015,164.546c-8.475,0-15.335,6.86-15.335,15.321c0,8.474,6.86,15.349,15.335,15.349
				c8.461,0,15.335-6.875,15.335-15.349C250.35,171.406,243.476,164.546,235.015,164.546z M235.015,184.986
				c-2.83,0-5.121-2.291-5.121-5.119c0-2.816,2.291-5.107,5.121-5.107c2.816,0,5.107,2.291,5.107,5.107
				C240.122,182.695,237.831,184.986,235.015,184.986z"/>
		</g>
	</g>
	<g>
		<g>
			<path fill="#6AB2E0" d="M201.792,195.216c-9.882,0-17.887,8.005-17.887,17.888c0,9.882,8.005,17.887,17.887,17.887
				c9.883,0,17.888-8.005,17.888-17.887C219.68,203.221,211.675,195.216,201.792,195.216z M201.792,220.764
				c-4.237,0-7.674-3.438-7.674-7.66c0-4.252,3.437-7.675,7.674-7.675c4.225,0,7.661,3.423,7.661,7.675
				C209.453,217.326,206.017,220.764,201.792,220.764z"/>
		</g>
	</g>
	<g>
		<g>
			<path fill="#6AB2E0" d="M168.57,113.422c-9.897-0.552-19.311,4.225-24.735,12.519l8.558,5.618
				c3.466-5.479,9.718-8.53,16.178-7.909h15.335v-10.228H168.57z"/>
		</g>
	</g>
	<g>
		<g>
			<path fill="#6AB2E0" d="M158.342,174.76c-2.815,0-5.106-2.291-5.106-5.106h-10.228c0,8.475,6.86,15.333,15.334,15.333h35.776
				V174.76H158.342z"/>
		</g>
	</g>
	<g>
		<g>
			<path fill="#6AB2E0" d="M168.57,205.429c-8.475,0-15.335-6.873-15.335-15.335h-10.228c0.014,14.107,11.456,25.548,25.563,25.563
				h20.44v-10.228H168.57z"/>
		</g>
	</g>
	<g>
		<g>
			<rect x="194.118" y="113.422" fill="#6AB2E0" width="15.335" height="10.228"/>
		</g>
	</g>
	<g>
		<g>
			<path fill="#6AB2E0" d="M144.512,99.591l7.22,7.234c3.491-3.508,5.92-3.617,16.839-3.617V92.98
				C156.947,92.98,151.109,92.98,144.512,99.591z"/>
		</g>
	</g>
	<g>
		<g>
			<path fill="#6AB2E0" d="M168.57,72.539c-11.623,0-17.461,0-24.059,6.598l7.22,7.232c3.491-3.478,5.92-3.617,16.839-3.617h20.44
				V72.539H168.57L168.57,72.539z"/>
		</g>
	</g>
	<g>
		<g>
			<path fill="#6AB2E0" d="M168.57,52.098c-11.623,0-17.461,0-24.059,6.597l7.22,7.234l0,0c3.491-3.493,5.92-3.617,16.839-3.617
				h15.335V52.098H168.57z"/>
		</g>
	</g>
	<g>
		<g>
			<path fill="#6AB2E0" d="M144.512,38.254l7.22,7.219c3.491-3.478,5.92-3.603,16.839-3.603V31.643
				C156.947,31.643,151.109,31.643,144.512,38.254z"/>
		</g>
	</g>
	<g>
		<g>
			<rect x="178.783" y="92.98" fill="#6AB2E0" width="30.67" height="10.228"/>
		</g>
	</g>
	<g>
		<g>
			<rect x="199.225" y="72.539" fill="#6AB2E0" width="10.229" height="10.213"/>
		</g>
	</g>
	<g>
		<g>
			<rect x="194.118" y="52.098" fill="#6AB2E0" width="15.335" height="10.214"/>
		</g>
	</g>
	<g>
		<g>
			<rect x="178.783" y="31.643" fill="#6AB2E0" width="30.67" height="10.228"/>
		</g>
	</g>
	<g>
		<g>
			<rect x="122.566" y="195.216" fill="#6AB2E0" width="10.214" height="10.213"/>
		</g>
	</g>
	<g>
		<g>
			<rect x="204.346" y="174.76" fill="#6AB2E0" width="10.214" height="10.227"/>
		</g>
	</g>
	<g>
		<g>
			<rect x="45.894" y="174.76" fill="#6AB2E0" width="10.228" height="10.227"/>
		</g>
	</g>
</g>
</svg>
