<?xml version="1.0" encoding="utf-8"?>
<!-- Generator: Adobe Illustrator 16.0.0, SVG Export Plug-In . SVG Version: 6.00 Build 0)  -->
<!DOCTYPE svg PUBLIC "-//W3C//DTD SVG 1.1//EN" "http://www.w3.org/Graphics/SVG/1.1/DTD/svg11.dtd">
<svg version="1.1" id="Capa_1" xmlns="http://www.w3.org/2000/svg" xmlns:xlink="http://www.w3.org/1999/xlink" x="0px" y="0px"
	 width="256px" height="256px" viewBox="0 0 256 256" enable-background="new 0 0 256 256" xml:space="preserve">
<g>
	<path fill="#6AB2E0" d="M189.076,61.163c-11.02-19.47-27.617-31.194-49.34-34.864c-15.275-2.61-30.045-0.064-43.504,7.472
		C76.51,44.817,64.771,61.643,61.342,83.748c-2.742,17.713,1.098,34.218,11.418,49.053c5.523,7.936,11.232,16.136,14.439,25.659
		c1.668,4.993,3.021,10.399,1.564,15.936c-0.797,3.008,0.807,5.976,3.814,7.048c0.404,0.151,0.814,0.246,1.223,0.313
		c-2.984,1.126-5.256,3.326-6.59,6.47c-0.82,1.974-0.938,4.106-1.072,6.16l-0.066,1.086c-0.279,3.829,0.822,7.208,3.205,9.775
		c2.48,2.665,6.227,4.199,10.268,4.199h0.277c3.828-0.066,7.67-0.093,11.496-0.093l33.266,0.067c3.895,0,7.801-0.013,11.697-0.027
		c6.662-0.024,11.482-3.643,12.887-9.671c0.385-1.682,0.373-3.375,0.346-5.415c0-8.254-5.154-13.407-13.445-13.434l-57.279,0.015
		c-0.322,0.001-0.641,0.011-0.953,0.03c0.895-0.599,1.623-1.47,2.105-2.562c0.623-1.404,1.074-3.046,1.311-4.742
		c0.85-6.438-0.17-12.994-3.311-21.261c-3.695-9.657-9.551-18.162-15.393-26.653c-9.088-13.22-11.989-28.003-8.598-43.952
		c2.559-12.053,8.598-22.241,17.963-30.294c13.977-12.066,30.494-16.361,48.723-12.73c12.252,2.412,22.559,8.477,30.652,18.015
		c12.98,15.301,16.955,32.985,11.83,52.575c-1.631,6.241-4.703,12.296-9.949,19.593c-5.709,7.961-12.625,18.769-15.514,31.792
		c-1.336,6.065-1.309,11.339,0.068,16.095c1.02,3.538,4.131,5.684,7.26,4.834c3.521-0.847,5.311-3.933,4.449-7.657
		c-1.363-5.933,0.119-11.603,1.762-16.371c3.166-9.232,8.584-17.273,12.93-23.247c8.371-11.459,13.219-25.196,13.324-37.7
		C197.277,82.04,194.695,71.098,189.076,61.163z M99.545,207.75v-0.007l0,0V207.75z M98.166,193.499
		c0.029-0.478,0.053-0.544,0.572-0.558l56.785-0.012l1.115-0.026c0.303,0,0.447,0.038,0.516,0c0.197,1.363,0.039,2.832-0.213,4.199
		c-0.303,0.065-0.689,0.118-1.008,0.118c-4.688,0.025-9.377,0.025-14.078,0.025h-14.123H99.717c-1.086,0-1.471-0.106-1.43-0.015
		c-0.041-0.077-0.146-0.409-0.146-1.652C98.127,194.874,98.113,194.187,98.166,193.499z"/>
	<path fill="#6AB2E0" d="M152.479,212.665c-3.432,0-5.842,2.571-6.002,6.4c-0.078,2.065-0.078,4.158,0,6.212
		c0.025,0.676-0.039,0.7-0.488,0.914c-2.836,1.282-5.643,2.609-8.451,3.947c-2.691,1.259-5.379,2.53-8.094,3.773
		c-0.146,0.055-0.332,0.12-0.863,0.107c-5.615-2.478-11.191-5.009-16.689-7.617c-0.121-0.092-0.318-0.437-0.332-0.557
		c-0.078-1.259-0.066-2.504-0.066-3.761c0.014-1.034,0.027-2.066-0.012-3.089c-0.119-3.774-2.52-6.316-5.986-6.331
		c-3.445,0-5.871,2.505-6.043,6.227c-0.066,1.284-0.055,2.584-0.039,3.867l0.014,3.325c0,1.061,0.012,2.133-0.014,3.182
		c-0.094,3.165,1.379,5.455,4.396,6.808c7.207,3.231,14.389,6.517,21.566,9.842c1.207,0.556,2.412,0.835,3.59,0.835
		c1.166,0,2.332-0.267,3.484-0.81c7.391-3.522,14.781-7.019,22.176-10.491c2.529-1.18,3.879-3.246,3.92-5.959
		c0.053-3.484,0.094-6.969,0-10.439C158.426,215.303,156.041,212.745,152.479,212.665z"/>
	<path fill="#6AB2E0" d="M125.414,46.554h-0.012c-2.266,0.092-4.557,0.304-6.836,0.636c-21.699,3.167-39.156,22.77-39.754,44.667
		v0.583c-0.012,0.437-0.012,0.874,0,1.323c0.146,3.261,2.346,5.685,5.457,6.002c0.213,0.026,0.426,0.041,0.637,0.041
		c2.809,0,5.193-2.08,5.816-5.101c0.174-0.927,0.252-1.896,0.291-2.861c0.518-13.485,9.764-26.189,22.506-30.892
		c4.293-1.604,8.705-2.132,12.822-2.465c3.523-0.277,6.002-3.005,5.762-6.356C131.852,48.845,129.242,46.554,125.414,46.554z"/>
	<path fill="#6AB2E0" d="M56.744,142.446c-9.472,6.967-18.93,13.948-28.506,21.035c-1.046,0.78-2.133,1.59-3.06,2.584
		c-1.671,1.774-2.015,4.039-0.995,6.384c1.258,2.849,3.881,3.405,6.027,3.563l0.489,0.027l1.062-0.543
		c0.753-0.372,1.655-0.82,2.477-1.404c3.246-2.357,6.465-4.743,9.67-7.113l8.12-5.988c4.039-2.981,8.082-5.96,12.121-8.953
		c3.231-2.425,3.999-5.882,1.947-8.822C63.991,140.233,60.174,139.915,56.744,142.446z"/>
	<path fill="#6AB2E0" d="M26.557,29.73c9.734,7.207,19.499,14.385,29.286,21.539c0.809,0.609,1.748,0.965,2.305,1.179l0.995-1.431
		l-0.702,1.55l0.344,0.146h0.384c3.379-0.055,5.471-1.405,6.386-4.16c0.847-2.584-0.027-5.087-2.411-6.86
		C53.3,34.395,43.458,27.106,33.563,19.89c-3.047-2.215-6.954-1.658-8.89,1.15C22.699,23.929,23.442,27.425,26.557,29.73z"/>
	<path fill="#6AB2E0" d="M229.439,164.25l-22.254-16.412c-2.133-1.577-4.25-3.154-6.465-4.623c-2.715-1.776-6.277-1.139-8.105,1.351
		c-1.895,2.57-1.484,5.975,1.033,8.306c0.305,0.265,0.609,0.503,1.246,0.966l25.154,18.533l0.768,0.583
		c1.074,0.821,2.186,1.668,3.457,2.33c0.889,0.465,1.842,0.702,2.809,0.702c3.193,0,5.816-2.569,5.855-5.684
		C233.07,166.965,230.896,165.337,229.439,164.25z"/>
	<path fill="#6AB2E0" d="M41.589,103.316c0.584-0.016,1.179-0.029,1.79-0.122c3.391-0.528,5.631-3.111,5.471-6.29
		c-0.186-3.246-2.782-5.644-6.174-5.695c-2.186-0.028-4.37-0.041-6.569-0.041h-20.48c-2.225,0-4.449,0-6.661,0.026
		c-3.684,0.04-6.374,2.41-6.544,5.775c-0.16,3.392,2.476,6.055,6.318,6.331c0.29,0.016,0.596,0.016,0.888,0.016v-1.693
		c0.001,0,0.001,0,0.002,0l0.819,1.693h28.956H41.589z"/>
	<path fill="#6AB2E0" d="M198.631,51.282c1.389,0,2.752-0.464,3.945-1.337c9.232-6.756,18.465-13.512,27.607-20.399
		c0.98-0.729,1.59-1.722,2.225-2.769c0.266-0.438,0.555-0.901,0.889-1.379l0.727-1.019l-0.754-0.994
		c-0.332-0.438-0.623-0.861-0.9-1.272c-0.662-0.981-1.285-1.895-2.24-2.635c-1.934-1.485-4.621-1.393-6.781,0.197
		c-9.393,6.876-18.783,13.763-28.121,20.744c-1.445,1.086-2.334,2.516-2.533,4.105c-0.209,1.577,0.266,3.193,1.338,4.56
		C195.133,50.475,196.801,51.282,198.631,51.282z"/>
	<path fill="#6AB2E0" d="M253.059,94.772c-1.1-2.306-3.152-3.578-5.75-3.578l-25.537-0.026c-2.266,0-4.516,0.013-6.783,0.026
		c-3.881,0.015-6.584,2.357-6.717,5.817c-0.051,1.628,0.506,3.149,1.59,4.29c1.219,1.271,3.008,1.985,5.049,1.999
		c4.951,0.016,9.908,0.041,14.863,0.041c5.76,0,11.508-0.025,17.26-0.107c1.934-0.012,3.854-1.111,5.006-2.132
		C253.803,99.54,254.184,97.115,253.059,94.772z"/>
</g>
</svg>
